{
  "name": "Глаза 2",
  "description": "Активные упражнения для глаз",
  "position": 1,
  "type": 0,
  "exercises": [
    {
      "name": "Большие глаза",
      "description": "Сидим прямо. Крепко зажмуриваем глаза на 5 секунд, затем широко открываем их. Повторяем 8-10 раз. Укрепляет мышцы век, улучшает кровообращение, способствует расслаблению мышц глаз.",
      "exerciseTime": 5000,
      "restTime": 3000,
      "loops": 10,
      "type": 0
    },
    {
      "name": "Массаж",
      "description": "Тремя пальцами каждой руки легко нажмите на верхние веки, через 1-2 секунды снимите пальцы с век. Повторите 3 раза. Улучшает циркуляцию внутриглазной жидкости.",
      "exerciseTime": 2000,
      "restTime": 3000,
      "loops": 3,
      "type": 0
    },
    {
      "name": "РИСУЕМ КАРТИНКУ",
      "description": "Первая помощь для глаз – закройте их на несколько минут и представьте что-то приятное. А если потереть ладони рук и прикрыть глаза теплыми ладонями, скрестив пальцы на середине лба, то эффект будет заметнее.",
      "exerciseTime": 120000,
      "restTime": 2000,
      "loops": 1,
      "type": 0
    }
  ]
}