{
  "name": "Шея 1",
  "description": "Активные упражнения для шеи",
  "position": 2,
  "type": 0,
  "exercises": [
    {
      "name": "Растяжка",
      "description": "Для этого упражнения нужно сесть прямо, выпрямить спину, поставить ноги на пол, а руки — на стол или на бедра. Держи шею прямо, затылок немного приподними вверх, подбородок слегка опусти вниз, не прижимая к груди. Расслабь плечи и опусти их вниз.Почувствуй растяжение в области шеи. Повтори несколько раз. Делай растяжку как можно чаще течение всего рабочего дня. Ты будешь приятно удивлен результатами!",
      "exerciseTime": 20000,
      "restTime": 10000,
      "loops": 3,
      "type": 0
    },
    {
      "name": "Повороты",
      "description": "Положение не меняй, сиди прямо, расправь плечи и расслабь руки. Шею держи прямо и смотри перед собой. Медленно поворачивай голову влево (глаза тоже смотрят максимально влево), немного задержись в этом положении и так же медленно вернись в исходную позицию. Теперь сделай поворот вправо. Повтори упражнение несколько раз в каждую сторону. Это упражнение избавит тебя от усталости и снимет напряжение.",
      "exerciseTime": 120000,
      "restTime": 15000,
      "loops": 10,
      "type": 0
    },
    {
      "name": "Наклоны в сторону",
      "description": "Исходное положение то же. Спина ровная, ноги на полу. Расправь плечи и расслабь руки (можно опустить вниз). Медленно наклони левое ухо к левому плечу, почувствуй приятное растяжение. При этом голову не следует наклонять вперед или назад, плечи держи постоянно опущенными.Обрати внимание на то, что ты тянешься ухом к плечу, а не наоборот. Медленно вернись в исходное положение и выполни это упражнение для правой стороны. Повтори несколько раз и почувствуй, как исчезает боль в области шеи.",
      "exerciseTime": 120000,
      "restTime": 15000,
      "loops": 1,
      "type": 0
    },
    {
      "name": "Повороты",
      "description": "Положение не меняй, сиди прямо, расправь плечи и расслабь руки. Шею держи прямо и смотри перед собой. Медленно поворачивай голову влево (глаза тоже смотрят максимально влево), немного задержись в этом положении и так же медленно вернись в исходную позицию. Теперь сделай поворот вправо. Повтори упражнение несколько раз в каждую сторону. Это упражнение избавит тебя от усталости и снимет напряжение.",
      "exerciseTime": 120000,
      "restTime": 15000,
      "loops": 10,
      "type": 0
    },
    {
      "name": "Наклоны в сторону",
      "description": "Исходное положение то же. Спина ровная, ноги на полу. Расправь плечи и расслабь руки (можно опустить вниз). Медленно наклони левое ухо к левому плечу, почувствуй приятное растяжение. При этом голову не следует наклонять вперед или назад, плечи держи постоянно опущенными.Обрати внимание на то, что ты тянешься ухом к плечу, а не наоборот. Медленно вернись в исходное положение и выполни это упражнение для правой стороны. Повтори несколько раз и почувствуй, как исчезает боль в области шеи.",
      "exerciseTime": 120000,
      "restTime": 15000,
      "loops": 1,
      "type": 0
    },
    {
      "name": "Повороты",
      "description": "Положение не меняй, сиди прямо, расправь плечи и расслабь руки. Шею держи прямо и смотри перед собой. Медленно поворачивай голову влево (глаза тоже смотрят максимально влево), немного задержись в этом положении и так же медленно вернись в исходную позицию. Теперь сделай поворот вправо. Повтори упражнение несколько раз в каждую сторону. Это упражнение избавит тебя от усталости и снимет напряжение.",
      "exerciseTime": 120000,
      "restTime": 15000,
      "loops": 10,
      "type": 0
    },
    {
      "name": "Наклоны в сторону",
      "description": "Исходное положение то же. Спина ровная, ноги на полу. Расправь плечи и расслабь руки (можно опустить вниз). Медленно наклони левое ухо к левому плечу, почувствуй приятное растяжение. При этом голову не следует наклонять вперед или назад, плечи держи постоянно опущенными.Обрати внимание на то, что ты тянешься ухом к плечу, а не наоборот. Медленно вернись в исходное положение и выполни это упражнение для правой стороны. Повтори несколько раз и почувствуй, как исчезает боль в области шеи.",
      "exerciseTime": 120000,
      "restTime": 15000,
      "loops": 1,
      "type": 0
    }
  ]
}